<?xml version="1.0" encoding="utf-8"?>
<svg version="1.1" id="Vrstva_1" xmlns="http://www.w3.org/2000/svg" xmlns:xlink="http://www.w3.org/1999/xlink" x="0px" y="0px"
     viewBox="277 -107 368 413" style="enable-background:new 277 -107 368 413;" xml:space="preserve">
<style type="text/css">
	.st0{fill:#E44D26;}
	.st1{fill:#F16529;}
	.st2{fill:#EBEBEB;}
	.st3{fill:#FFFFFF;}
</style>
<title>HTML5 Logo</title>
<polygon class="st0" points="313.6,264.9 280.6,-105.4 643.4,-105.4 610.3,264.8 461.8,306 "/>
<polygon class="st1" points="462,274.5 582,241.2 610.3,-75.1 462,-75.1 "/>
<polygon class="st2" points="462,62.2 401.9,62.2 397.8,15.7 462,15.7 462,-29.7 461.8,-29.7 348.1,-29.7 349.2,-17.5 360.4,107.6 
	462,107.6 "/>
<polygon class="st2" points="462,180.2 461.8,180.2 411.2,166.5 408,130.3 383.4,130.3 362.4,130.3 368.8,201.6 461.8,227.5 
	462,227.4 "/>
<polygon class="st3" points="461.8,62.2 461.8,107.6 517.8,107.6 512.5,166.5 461.8,180.2 461.8,227.4 554.9,201.6 555.6,194 
	566.3,74.4 567.4,62.2 555.2,62.2 "/>
<polygon class="st3" points="461.8,-29.7 461.8,-1.5 461.8,15.6 461.8,15.7 571.4,15.7 571.4,15.7 571.5,15.7 572.4,5.5 
	574.5,-17.5 575.6,-29.7 "/>
</svg>
